3 Data Management and Exploration | Linear models in Agriculture and Natural Resources
…
But you may want to reorganize the data so that you had a total count of species for each site in one column. In other words, we want to reshape from “wide” format to “long” format. We can do this using the pivot_longer function:

spxsite %>% pivot_longer( 
             cols = c(sp1, sp2, sp3),
             names_to = "Species",
             values_to = "Occurrence")

## # A tibble: 60 × 3
##    Site_ID Species Occurrence
##      <int> <chr>        <dbl>
##  1       1 sp1              0
##  2       1 sp2              1
##  3       1 sp3              0
##  4       2 sp1              1
##  5       2 sp2              0
##  6       2 sp3              1
##  7       3 sp1              0
##  8       3 sp2              0
##  9       3 sp3              0
## 10       4 sp1              0
## # ℹ 50 more rows
…
