4 Generalized Linear Models | Linear models in Agriculture and Natural Resources
…
##          var group
## 1 0.15108136   two
## 2 0.01761541   two
## 3 0.47914554   two
## 4 0.05403794   two
## 5 0.13555345   two
## 6 0.19157853   two

Then bind the two groups into one dataset:

dat1 <- rbind(v1,v2) #mean group 1 = 1.5, group 2 = 0.5
dat1 %>% mutate(obs=rep(1:100,2)) %>% group_by(obs) %>% pivot_wider(names_from = group,values_from = var) %>% 
  ungroup() %>% select(one,two)

## # A tibble: 100 × 2
##      one     two
##    <dbl>   <dbl>
##  1 1.09  0.151  
##  2 2.45  0.0176 
##  3 3.56  0.479  
##  4 0.941 0.0540 
##  5 0.923 0.136  
##  6 1.43  0.192  
##  7 0.559 0.185  
##  8 1.20  0.0195 
##  9 1.15  0.0725 
## 10 0.854 0.00261
## # ℹ 90 more rows
…
